{
  "name": "cxecrt-icon-font",
  "css_prefix_text": "cxecrt-icon-",
  "css_use_suffix": false,
  "hinting": true,
  "units_per_em": 1000,
  "ascent": 850,
  "glyphs": [
    {
      "uid": "93c35534e6b079466c4676cdedcdb7c1",
      "css": "cart-arrow-down",
      "code": 59393,
      "src": "fontawesome"
    },
    {
      "uid": "7e4164950ffa4990961958b2d6318658",
      "css": "info-circled",
      "code": 59392,
      "src": "entypo"
    },
    {
      "uid": "390d6d13398cbf8c8c3c5493f7d34088",
      "css": "export",
      "code": 59394,
      "src": "entypo"
    },
    {
      "uid": "06301c50d89b5d3e651bd07ebd6d7de7",
      "css": "cancel",
      "code": 59396,
      "src": "mfglabs"
    },
    {
      "uid": "b714be5a812a474811604f700dfc87ce",
      "css": "left-open",
      "code": 59395,
      "src": "mfglabs"
    }
  ]
}